 1	4f12.6s	4f<sup>12</sup>6s
 2	4f12.5d	4f<sup>12</sup>5d
 3	4f11.6s.6p	4f<sup>11</sup>6s6p
 4	4f11.5d.6p	4f<sup>11</sup>5d6p
-2	4f11.6s2	4f<sup>11</sup>6s<sup>2</sup>
-3	4f11.5d.6s	4f<sup>11</sup>5d6s
-4	4f11.5d2	4f<sup>11</sup>5d<sup>2</sup>
-5	4f12.6p	4f<sup>12</sup>6p